Case-Study zur Arbeitslosigkeit in Deutschland
…
.panel1-einlesen_alo-auto[

```r
alo_skip <- read_xlsx("./data/Arbeitslose_2017.xlsx", sheet = "6", skip = 8)

*alo_skip
```
]
 
.panel2-einlesen_alo-auto[

```
## # A tibble: 11,346 x 32
##    Schlüssel Gemeinde    `1`   `2`    `3`    `4`    `5`    `6`   `7`   `8`
##    <chr>     <chr>     <dbl> <dbl>  <dbl>  <dbl>  <dbl>  <dbl> <dbl> <dbl>
##  1 <NA>      Deutsch… 2.53e6 47840 230694 839545 529002 655249 14022 71133
##  2 01        Schlesw… 9.24e4  2072   9703  30138  18788  18688   437  2297
##  3 01001000  Flensbu… 4.51e3   108    566   1120    654    983    18   141
##  4 01002000  Kiel, L… 1.23e4   220   1100   3306   1842   3103    54   294
##  5 01003000  Lübeck,… 9.69e3   180    836   2902   1667   2050    41   204
##  6 01004000  Neumüns… 3.84e3   105    440   1134    685    724    10    45
##  7 01051     Dithmar… 4.63e3   147    634   1402    826    791    27   141
##  8 01051001  Albersd… 1.50e2     5     23     43     23     24     0     4
##  9 01051002  Arkebek  5.00e0     0      1      1      1      2    NA    NA
## 10 01051003  Averlak  1.50e1     0      3      4      4      1    NA     0
## # … with 11,336 more rows, and 22 more variables: `9` <dbl>, `10` <dbl>,
## #   `11` <dbl>, `12` <dbl>, `13` <dbl>, `14` <dbl>, `15` <dbl>, `16` <dbl>,
## #   `17` <dbl>, `18` <dbl>, `19` <dbl>, `20` <dbl>, `21` <dbl>, `22` <dbl>,
## #   `23` <dbl>, `24` <dbl>, `25` <dbl>, `26` <dbl>, `27` <dbl>, `28` <dbl>,
## #   `29` <dbl>, `30` <dbl>
```
…
.panel1-einlesen_alo-auto[

```r
alo_skip <- read_xlsx("./data/Arbeitslose_2017.xlsx", sheet = "6", skip = 8)

alo_skip %>%
* select(c(`Schlüssel`, Gemeinde, `1`))
```
]
 
.panel2-einlesen_alo-auto[

```
## # A tibble: 11,346 x 3
##    Schlüssel Gemeinde                   `1`
##    <chr>     <chr>                    <dbl>
##  1 <NA>      Deutschland            2532837
##  2 01        Schleswig-Holstein       92434
##  3 01001000  Flensburg, Stadt          4512
##  4 01002000  Kiel, Landeshauptstadt   12345
##  5 01003000  Lübeck, Hansestadt        9692
##  6 01004000  Neumünster, Stadt         3836
##  7 01051     Dithmarschen              4628
##  8 01051001  Albersdorf                 150
##  9 01051002  Arkebek                      5
## 10 01051003  Averlak                     15
## # … with 11,336 more rows
```
…
```r
alo_skip <- read_xlsx("./data/Arbeitslose_2017.xlsx", sheet = "6", skip = 8)

alo_skip %>%
  select(c(`Schlüssel`, Gemeinde, `1`)) %>%
* rename(Regionalschluessel = `Schlüssel`,
*        alo = `1`)
```
]
 
.panel2-einlesen_alo-auto[

```
## # A tibble: 11,346 x 3
##    Regionalschluessel Gemeinde                   alo
##    <chr>              <chr>                    <dbl>
##  1 <NA>               Deutschland            2532837
##  2 01                 Schleswig-Holstein       92434
##  3 01001000           Flensburg, Stadt          4512
##  4 01002000           Kiel, Landeshauptstadt   12345
##  5 01003000           Lübeck, Hansestadt        9692
##  6 01004000           Neumünster, Stadt         3836
##  7 01051              Dithmarschen              4628
##  8 01051001           Albersdorf                 150
##  9 01051002           Arkebek                      5
## 10 01051003           Averlak                     15
## # … with 11,336 more rows
```
…
```r
alo_skip <- read_xlsx("./data/Arbeitslose_2017.xlsx", sheet = "6", skip = 8)

alo_skip %>%
  select(c(`Schlüssel`, Gemeinde, `1`)) %>%
  rename(Regionalschluessel = `Schlüssel`,
         alo = `1`) %>%
* filter(!is.na(alo) & Gemeinde!= "Deutschland")
```
]
 
.panel2-einlesen_alo-auto[

```
## # A tibble: 11,343 x 3
##    Regionalschluessel Gemeinde                 alo
##    <chr>              <chr>                  <dbl>
##  1 01                 Schleswig-Holstein     92434
##  2 01001000           Flensburg, Stadt        4512
##  3 01002000           Kiel, Landeshauptstadt 12345
##  4 01003000           Lübeck, Hansestadt      9692
##  5 01004000           Neumünster, Stadt       3836
##  6 01051              Dithmarschen            4628
##  7 01051001           Albersdorf               150
##  8 01051002           Arkebek                    5
##  9 01051003           Averlak                   15
## 10 01051004           Bargenstedt               17
## # … with 11,333 more rows
```
…
---

count: false

.panel1-konsistenz_alo-auto[

```r
*data_alo
```
]
 
.panel2-konsistenz_alo-auto[

```
## # A tibble: 11,343 x 3
##    Regionalschluessel Gemeinde                 alo
##    <chr>              <chr>                  <dbl>
##  1 01                 Schleswig-Holstein     92434
##  2 01001000           Flensburg, Stadt        4512
##  3 01002000           Kiel, Landeshauptstadt 12345
##  4 01003000           Lübeck, Hansestadt      9692
##  5 01004000           Neumünster, Stadt       3836
##  6 01051              Dithmarschen            4628
##  7 01051001           Albersdorf               150
##  8 01051002           Arkebek                    5
##  9 01051003           Averlak                   15
## 10 01051004           Bargenstedt               17
## # … with 11,333 more rows
```
…
---

count: false

.panel1-interne_konsistenz1-auto[

```r
*data_alo
```
]
 
.panel2-interne_konsistenz1-auto[

```
## # A tibble: 11,343 x 3
##    Regionalschluessel Gemeinde                 alo
##    <chr>              <chr>                  <dbl>
##  1 01                 Schleswig-Holstein     92434
##  2 01001000           Flensburg, Stadt        4512
##  3 01002000           Kiel, Landeshauptstadt 12345
##  4 01003000           Lübeck, Hansestadt      9692
##  5 01004000           Neumünster, Stadt       3836
##  6 01051              Dithmarschen            4628
##  7 01051001           Albersdorf               150
##  8 01051002           Arkebek                    5
##  9 01051003           Averlak                   15
## 10 01051004           Bargenstedt               17
## # … with 11,333 more rows
```
…
---
count: false

.panel1-interne_konsistenz1-auto[

```r
data_alo %>%
* filter(nchar(Regionalschluessel) == 8)
```
]
 
.panel2-interne_konsistenz1-auto[

```
## # A tibble: 11,010 x 3
##    Regionalschluessel Gemeinde                 alo
##    <chr>              <chr>                  <dbl>
##  1 01001000           Flensburg, Stadt        4512
##  2 01002000           Kiel, Landeshauptstadt 12345
##  3 01003000           Lübeck, Hansestadt      9692
##  4 01004000           Neumünster, Stadt       3836
##  5 01051001           Albersdorf               150
##  6 01051002           Arkebek                    5
##  7 01051003           Averlak                   15
##  8 01051004           Bargenstedt               17
##  9 01051005           Barkenholm                 3
## 10 01051006           Barlt                     21
## # … with 11,000 more rows
```
…
.panel1-interne_konsistenz1-auto[

```r
data_alo %>%
  filter(nchar(Regionalschluessel) == 8) %>%
* mutate(landkreis = str_extract(Regionalschluessel, "^.{5}"))
```
]
 
.panel2-interne_konsistenz1-auto[

```
## # A tibble: 11,010 x 4
##    Regionalschluessel Gemeinde                 alo landkreis
##    <chr>              <chr>                  <dbl> <chr>    
##  1 01001000           Flensburg, Stadt        4512 01001    
##  2 01002000           Kiel, Landeshauptstadt 12345 01002    
##  3 01003000           Lübeck, Hansestadt      9692 01003    
##  4 01004000           Neumünster, Stadt       3836 01004    
##  5 01051001           Albersdorf               150 01051    
##  6 01051002           Arkebek                    5 01051    
##  7 01051003           Averlak                   15 01051    
##  8 01051004           Bargenstedt               17 01051    
##  9 01051005           Barkenholm                 3 01051    
## 10 01051006           Barlt                     21 01051    
## # … with 11,000 more rows
```
…
.panel1-interne_konsistenz1-auto[

```r
data_alo %>%
  filter(nchar(Regionalschluessel) == 8) %>%
  mutate(landkreis = str_extract(Regionalschluessel, "^.{5}")) %>%
* mutate(bundesland = str_extract(Regionalschluessel, "^.{2}"))
```
]
 
.panel2-interne_konsistenz1-auto[

```
## # A tibble: 11,010 x 5
##    Regionalschluessel Gemeinde                 alo landkreis bundesland
##    <chr>              <chr>                  <dbl> <chr>     <chr>     
##  1 01001000           Flensburg, Stadt        4512 01001     01        
##  2 01002000           Kiel, Landeshauptstadt 12345 01002     01        
##  3 01003000           Lübeck, Hansestadt      9692 01003     01        
##  4 01004000           Neumünster, Stadt       3836 01004     01        
##  5 01051001           Albersdorf               150 01051     01        
##  6 01051002           Arkebek                    5 01051     01        
##  7 01051003           Averlak                   15 01051     01        
##  8 01051004           Bargenstedt               17 01051     01        
##  9 01051005           Barkenholm                 3 01051     01        
## 10 01051006           Barlt                     21 01051     01        
## # … with 11,000 more rows
```
…
---

count: false

.panel1-interne_konsistenz2-auto[

```r
*alo_meta
```
]
 
.panel2-interne_konsistenz2-auto[

```
## # A tibble: 11,010 x 5
##    Regionalschluessel Gemeinde                 alo landkreis bundesland
##    <chr>              <chr>                  <dbl> <chr>     <chr>     
##  1 01001000           Flensburg, Stadt        4512 01001     01        
##  2 01002000           Kiel, Landeshauptstadt 12345 01002     01        
##  3 01003000           Lübeck, Hansestadt      9692 01003     01        
##  4 01004000           Neumünster, Stadt       3836 01004     01        
##  5 01051001           Albersdorf               150 01051     01        
##  6 01051002           Arkebek                    5 01051     01        
##  7 01051003           Averlak                   15 01051     01        
##  8 01051004           Bargenstedt               17 01051     01        
##  9 01051005           Barkenholm                 3 01051     01        
## 10 01051006           Barlt                     21 01051     01        
## # … with 11,000 more rows
```
…
---
count: false

.panel1-interne_konsistenz2-auto[

```r
alo_meta %>%
* group_by(bundesland)
```
]
 
.panel2-interne_konsistenz2-auto[

```
## # A tibble: 11,010 x 5
## # Groups:   bundesland [16]
##    Regionalschluessel Gemeinde                 alo landkreis bundesland
##    <chr>              <chr>                  <dbl> <chr>     <chr>     
##  1 01001000           Flensburg, Stadt        4512 01001     01        
##  2 01002000           Kiel, Landeshauptstadt 12345 01002     01        
##  3 01003000           Lübeck, Hansestadt      9692 01003     01        
##  4 01004000           Neumünster, Stadt       3836 01004     01        
##  5 01051001           Albersdorf               150 01051     01        
##  6 01051002           Arkebek                    5 01051     01        
##  7 01051003           Averlak                   15 01051     01        
##  8 01051004           Bargenstedt               17 01051     01        
##  9 01051005           Barkenholm                 3 01051     01        
## 10 01051006           Barlt                     21 01051     01        
## # … with 11,000 more rows
```
…
---

count: false

.panel1-interne_konsistenz3-auto[

```r
*alo_meta
```
]
 
.panel2-interne_konsistenz3-auto[

```
## # A tibble: 11,010 x 5
##    Regionalschluessel Gemeinde                 alo landkreis bundesland
##    <chr>              <chr>                  <dbl> <chr>     <chr>     
##  1 01001000           Flensburg, Stadt        4512 01001     01        
##  2 01002000           Kiel, Landeshauptstadt 12345 01002     01        
##  3 01003000           Lübeck, Hansestadt      9692 01003     01        
##  4 01004000           Neumünster, Stadt       3836 01004     01        
##  5 01051001           Albersdorf               150 01051     01        
##  6 01051002           Arkebek                    5 01051     01        
##  7 01051003           Averlak                   15 01051     01        
##  8 01051004           Bargenstedt               17 01051     01        
##  9 01051005           Barkenholm                 3 01051     01        
## 10 01051006           Barlt                     21 01051     01        
## # … with 11,000 more rows
```
…
---
count: false

.panel1-interne_konsistenz3-auto[

```r
alo_meta %>%
* group_by(landkreis)
```
]
 
.panel2-interne_konsistenz3-auto[

```
## # A tibble: 11,010 x 5
## # Groups:   landkreis [401]
##    Regionalschluessel Gemeinde                 alo landkreis bundesland
##    <chr>              <chr>                  <dbl> <chr>     <chr>     
##  1 01001000           Flensburg, Stadt        4512 01001     01        
##  2 01002000           Kiel, Landeshauptstadt 12345 01002     01        
##  3 01003000           Lübeck, Hansestadt      9692 01003     01        
##  4 01004000           Neumünster, Stadt       3836 01004     01        
##  5 01051001           Albersdorf               150 01051     01        
##  6 01051002           Arkebek                    5 01051     01        
##  7 01051003           Averlak                   15 01051     01        
##  8 01051004           Bargenstedt               17 01051     01        
##  9 01051005           Barkenholm                 3 01051     01        
## 10 01051006           Barlt                     21 01051     01        
## # … with 11,000 more rows
```
…
.panel1-interne_konsistenz3-auto[

```r
alo_meta %>%
  group_by(landkreis) %>%
* summarise(total_alo = sum(alo))
```
]
 
.panel2-interne_konsistenz3-auto[

```
## # A tibble: 401 x 2
##    landkreis total_alo
##    <chr>         <dbl>
##  1 01001          4512
##  2 01002         12345
##  3 01003          9692
##  4 01004          3836
##  5 01051          4632
##  6 01053          5592
##  7 01054          5657
##  8 01055          5748
##  9 01056          8599
## 10 01057          3264
## # … with 391 more rows
```
…
.panel1-interne_konsistenz3-auto[

```r
alo_meta %>%
  group_by(landkreis) %>%
  summarise(total_alo = sum(alo)) %>%
* rename(Regionalschluessel = landkreis)
```
]
 
.panel2-interne_konsistenz3-auto[

```
## # A tibble: 401 x 2
##    Regionalschluessel total_alo
##    <chr>                  <dbl>
##  1 01001                   4512
##  2 01002                  12345
##  3 01003                   9692
##  4 01004                   3836
##  5 01051                   4632
##  6 01053                   5592
##  7 01054                   5657
##  8 01055                   5748
##  9 01056                   8599
## 10 01057                   3264
## # … with 391 more rows
```
…
count: false

.panel1-schulden_einlesen-auto[

```r
# Einlesen des Tabellenblattes "SH" ohne die ersten 5 Zeilen und nur die Spalten 1-6
*read_xlsx("./data/Schulden_2017.xlsx", sheet = "SH", skip = 5)[1:6]
```
]
 
.panel2-schulden_einlesen-auto[

```
## # A tibble: 1,312 x 6
##    `Regional-\r\ns… `Gemeinde/Gemei… Verwaltungsform `Einwohner/in\r…
##    <chr>            <chr>            <chr>           <chr>           
##  1 <NA>             <NA>             <NA>            <NA>            
##  2 <NA>             <NA>             <NA>            <NA>            
##  3 <NA>             <NA>             <NA>            <NA>            
##  4 <NA>             <NA>             <NA>            <NA>            
##  5 <NA>             <NA>             <NA>            <NA>            
##  6 010010000000     Flensburg, Stadt kreisfreie Sta… 87770           
##  7 010020000000     Kiel, Landeshau… kreisfreie Sta… 247135          
##  8 010030000000     Lübeck, Hansest… kreisfreie Sta… 216739          
##  9 010040000000     Neumünster, Sta… kreisfreie Sta… 78759           
## 10 01051            Kreisverwaltung… Kreisverwaltung {133 684}       
## # … with 1,302 more rows, and 2 more variables: `Schulden des öffentlichen
## #   Bereichs insgesamt` <chr>, `Schulden je \r\nEinwohner/in` <chr>
```
…
# Umbenennen der ersten 6 Spalten
colnames(schulden_individuell) <- c("Regionalschluessel", "Gemeinde",
                                    "Verwaltungsform", "Einwohner", "Schulden_gesamt", "Schulden_pro_kopf")

# Zusätzliche Spalte hinzufügen mit dem Namen des Tabellenblattes
schulden_individuell$Bundesland <- "SH"

*schulden_individuell
```
]
 
.panel2-schulden_einlesen-auto[

```
## # A tibble: 1,312 x 7
##    Regionalschlues… Gemeinde Verwaltungsform Einwohner Schulden_gesamt
##    <chr>            <chr>    <chr>           <chr>     <chr>          
##  1 <NA>             <NA>     <NA>            <NA>      <NA>           
##  2 <NA>             <NA>     <NA>            <NA>      <NA>           
##  3 <NA>             <NA>     <NA>            <NA>      <NA>           
##  4 <NA>             <NA>     <NA>            <NA>      EUR            
##  5 <NA>             <NA>     <NA>            <NA>      1              
##  6 010010000000     Flensbu… kreisfreie Sta… 87770     508281539      
##  7 010020000000     Kiel, L… kreisfreie Sta… 247135    948848421      
##  8 010030000000     Lübeck,… kreisfreie Sta… 216739    1206620094     
##  9 010040000000     Neumüns… kreisfreie Sta… 78759     426019276      
## 10 01051            Kreisve… Kreisverwaltung {133 684} 65179097       
## # … with 1,302 more rows, and 2 more variables: Schulden_pro_kopf <chr>,
## #   Bundesland <chr>
```
…
*schulden_individuell
```
]
 
.panel2-for_loop-auto[

```
## [1] 12
```

```
## # A tibble: 25,796 x 7
##    Regionalschlues… Gemeinde Verwaltungsform Einwohner Schulden_gesamt
##    <chr>            <chr>    <chr>           <chr>     <chr>          
##  1 <NA>             <NA>     <NA>            <NA>      <NA>           
##  2 <NA>             <NA>     <NA>            <NA>      <NA>           
##  3 <NA>             <NA>     <NA>            <NA>      <NA>           
##  4 <NA>             <NA>     <NA>            <NA>      EUR            
##  5 <NA>             <NA>     <NA>            <NA>      1              
##  6 010010000000     Flensbu… kreisfreie Sta… 87770     508281539      
##  7 010020000000     Kiel, L… kreisfreie Sta… 247135    948848421      
##  8 010030000000     Lübeck,… kreisfreie Sta… 216739    1206620094     
##  9 010040000000     Neumüns… kreisfreie Sta… 78759     426019276      
## 10 01051            Kreisve… Kreisverwaltung {133 684} 65179097       
## # … with 25,786 more rows, and 2 more variables: Schulden_pro_kopf <chr>,
## #   Bundesland <chr>
```
…
count: false

.panel1-schulden_umformen-auto[

```r
# Die Daten wurden noch nicht schön eingelesen, in der Excel Tabelle
# waren die Variablennamen über mehrere Reihen gezogen, dies müssen wir noch ausgleichen
*schulden_individuell
```
]
 
.panel2-schulden_umformen-auto[

```
## # A tibble: 13,554 x 7
##    Regionalschlues… Gemeinde Verwaltungsform Einwohner Schulden_gesamt
##    <chr>            <chr>    <chr>           <chr>     <chr>          
##  1 <NA>             <NA>     <NA>            <NA>      <NA>           
##  2 <NA>             <NA>     <NA>            <NA>      <NA>           
##  3 <NA>             <NA>     <NA>            <NA>      <NA>           
##  4 <NA>             <NA>     <NA>            <NA>      EUR            
##  5 <NA>             <NA>     <NA>            <NA>      1              
##  6 010010000000     Flensbu… kreisfreie Sta… 87770     508281539      
##  7 010020000000     Kiel, L… kreisfreie Sta… 247135    948848421      
##  8 010030000000     Lübeck,… kreisfreie Sta… 216739    1206620094     
##  9 010040000000     Neumüns… kreisfreie Sta… 78759     426019276      
## 10 01051            Kreisve… Kreisverwaltung {133 684} 65179097       
## # … with 13,544 more rows, and 2 more variables: Schulden_pro_kopf <chr>,
## #   Bundesland <chr>
```
…
